xlh-motion/fpga/xlh_motion_fpga_00_90/src/FILTER/DIGITAL_INPUT_FILTER/vcd/icarus_tb.vcd
$date
	Mon Jan 07 11:31:59 2019
$end
$version
	Icarus Verilog
$end
$timescale
	1ns
$end
$scope module ICARUS_TB $end
$var wire 1 ! out $end
$var reg 1 " clk $end
$var reg 1 # in $end
$scope module dig_inp_filter $end
$var wire 1 " CLK $end
$var wire 1 # IN $end
$var reg 1 ! OUT $end
$var reg 5 $ ctr0 [4:0] $end
$var reg 5 % ctr1 [4:0] $end
$upscope $end
$upscope $end
$enddefinitions $end
#0
$dumpvars
b0 %
b0 $
0#
1"
0!
$end
#10
0"
#20
1"
#30
0"
#40
b1 %
1"
1#
#50
0"
#60
b10 %
1"
#70
0"
#80
b11 %
1"
#90
0"
#100
b100 %
1"
#110
0"
#120
b101 %
1"
#130
0"
#140
1!
b0 %
1"
#150
0"
#160
1"
#170
0"
#180
1"
#190
0"
#200
1"
#210
0"
#220
1"
#230
0"
#240
1"
#250
0"
#260
1"
#270
0"
#280
1"
#290
0"
#300
1"
#310
0"
#320
1"
#330
0"
#340
b1 $
1"
0#
#350
0"
#360
b10 $
1"
#370
0"
#380
b0 $
1"
1#
#390
0"
#400
1"
#410
0"
#420
1"
#430
0"
0#
#440
b1 $
1"
#450
0"
#460
b10 $
1"
#470
0"
#480
b0 $
1"
1#
#490
0"
#500
1"
#510
0"
#520
1"
#530
0"
#540
1"
#550
0"
#560
1"
#570
0"
#580
1"
#590
0"
#600
1"
#610
0"
#620
1"
#630
0"
#640
1"
#650
0"
#660
1"
#670
0"
#680
1"
#690
0"
#700
1"
#710
0"
#720
1"
#730
0"
#740
1"
#750
0"
#760
1"
#770
0"
#780
b1 $
1"
0#
#790
0"
#800
b10 $
1"
#810
0"
#820
b11 $
1"
#830
0"
#840
b100 $
1"
#850
0"
#860
b101 $
1"
#870
0"
#880
0!
b0 $
1"
#890
0"
#900
1"
#910
0"
#920
1"
#930
0"
#940
1"
#950
0"
#960
1"
#970
0"
#980
1"
#990
0"
#1000
1"
#1010
0"
#1020
1"
#1030
0"
#1040
1"
#1050
0"
#1060
1"
#1070
0"
#1080
b1 %
1"
1#
#1090
0"
#1100
b10 %
1"
#1110
0"
#1120
b0 %
1"
0#
#1130
0"
#1140
1"
#1150
0"
#1160
1"
#1170
0"
1#
#1180
b1 %
1"
#1190
0"
#1200
b10 %
1"
#1210
0"
#1220
b0 %
1"
0#
